design_practice/midterm/problem2/problem2.sim/sim_1/behav/xsim/fir_filter.vcd
$date
   Wed Apr 30 00:53:19 2025
$end
$version
  2019.2
$end
$timescale
  1ps
$end
$scope module tb_fir_filter $end
$var reg 1 ! clk $end
$var reg 1 " rst_n $end
$var reg 4 # din [3:0] $end
$var wire 10 $ dout [9:0] $end
$var integer 32 % i $end
$scope module dut $end
$var wire 1 & clk $end
$var wire 1 ' rst_n $end
$var wire 4 ( din [3:0] $end
$var wire 10 $ dout [9:0] $end
$var wire 4 ) x1 [3:0] $end
$var wire 4 * x2 [3:0] $end
$var wire 4 + x3 [3:0] $end
$var wire 4 , x4 [3:0] $end
$var wire 5 - pre0 [4:0] $end
$var wire 5 . pre1 [4:0] $end
$var wire 4 / pre2 [3:0] $end
$var wire 9 0 mul0 [8:0] $end
$var wire 9 1 mul1 [8:0] $end
$var wire 7 2 mul2_raw [6:0] $end
$var wire 9 3 mul2 [8:0] $end
$var wire 10 4 sum0 [9:0] $end
$var wire 11 5 sum0_ext [10:0] $end
$var wire 11 6 mul2_ext [10:0] $end
$var wire 11 7 y_ext [10:0] $end
$var wire 11 8 y_reg [10:0] $end
$var parameter 4 9 C0 [3:0] $end
$var parameter 4 : C1 [3:0] $end
$var parameter 4 ; C2 [3:0] $end
$scope module u_d0 $end
$var wire 1 & clk $end
$var wire 1 ' rst_n $end
$var wire 4 ( d [3:0] $end
$var reg 4 < q [3:0] $end
$var parameter 0 = W $end
$upscope $end
$scope module u_d1 $end
$var wire 1 & clk $end
$var wire 1 ' rst_n $end
$var wire 4 ) d [3:0] $end
$var reg 4 > q [3:0] $end
$var parameter 0 ? W $end
$upscope $end
$scope module u_d2 $end
$var wire 1 & clk $end
$var wire 1 ' rst_n $end
$var wire 4 * d [3:0] $end
$var reg 4 @ q [3:0] $end
$var parameter 0 A W $end
$upscope $end
$scope module u_d3 $end
$var wire 1 & clk $end
$var wire 1 ' rst_n $end
$var wire 4 + d [3:0] $end
$var reg 4 B q [3:0] $end
$var parameter 0 C W $end
$upscope $end
$scope module u_out $end
$var wire 1 & clk $end
$var wire 1 ' rst_n $end
$var wire 11 7 d [10:0] $end
$var reg 11 D q [10:0] $end
$var parameter 0 E W $end
$upscope $end
$upscope $end
$upscope $end
$enddefinitions $end
#0
$dumpvars
1!
0"
b0 #
b0 $
bx %
1&
0'
b0 (
b0 )
b0 *
b0 +
b0 ,
b0 -
b0 .
b0 /
b0 0
b0 1
b0 2
b0 3
b0 4
b0 5
b0 6
b0 7
b0 8
b1 9
b11 :
b110 ;
b0 <
b100 =
b0 >
b100 ?
b0 @
b100 A
b0 B
b100 C
b0 D
b1011 E
$end
#5000
0!
0&
#7000
1"
b11111111111111111111111111111001 %
1'
#10000
1!
b1001 #
1&
b1001 (
b1001 )
b11001 -
b11001 .
b111111001 0
b111101011 1
b1111100100 4
b11111100100 5
b11111100100 7
b1001 <
#15000
0!
0&
#20000
1!
b1001 #
b1111100100 $
1&
b1001 *
b1001 /
b1010110 2
b111010110 3
b1111010110 6
b1110111010 7
b11111100100 8
b1001 >
b11111100100 D
#25000
0!
0&
#30000
1!
b1001 #
b1110111010 $
1&
b1001 +
b10010 .
b111010110 1
b1111001111 4
b11111001111 5
b1110100101 7
b1110111010 8
b1001 @
b1110111010 D
#35000
0!
0&
#40000
1!
b1001 #
b1110100101 $
b11111111111111111111111111111010 %
1&
b1001 ,
b10010 -
b111110010 0
b1111001000 4
b11111001000 5
b1110011110 7
b1110100101 8
b1001 B
b1110100101 D
#45000
0!
0&
#50000
1!
b1010 #
b1110011110 $
1&
b1010 (
b1010 )
b10011 -
b10011 .
b111110011 0
b111011001 1
b1111001100 4
b11111001100 5
b1110100010 7
b1110011110 8
b1010 <
b1110011110 D
#55000
0!
0&
#60000
1!
b1010 #
b1110100010 $
1&
b1010 *
b1010 /
b1011100 2
b111011100 3
b1111011100 6
b1110101000 7
b1110100010 8
b1010 >
b1110100010 D
#65000
0!
0&
#70000
1!
b1010 #
b1110101000 $
1&
b1010 +
b10100 .
b111011100 1
b1111001111 4
b11111001111 5
b1110101011 7
b1110101000 8
b1010 @
b1110101000 D
#75000
0!
0&
#80000
1!
b1010 #
b1110101011 $
b11111111111111111111111111111011 %
1&
b1010 ,
b10100 -
b111110100 0
b1111010000 4
b11111010000 5
b1110101100 7
b1110101011 8
b1010 B
b1110101011 D
#85000
0!
0&
#90000
1!
b1011 #
b1110101100 $
1&
b1011 (
b1011 )
b10101 -
b10101 .
b111110101 0
b111011111 1
b1111010100 4
b11111010100 5
b1110110000 7
b1110101100 8
b1011 <
b1110101100 D
#95000
0!
0&
#100000
1!
b1011 #
b1110110000 $
1&
b1011 *
b1011 /
b1100010 2
b111100010 3
b1111100010 6
b1110110110 7
b1110110000 8
b1011 >
b1110110000 D
#105000
0!
0&
#110000
1!
b1011 #
b1110110110 $
1&
b1011 +
b10110 .
b111100010 1
b1111010111 4
b11111010111 5
b1110111001 7
b1110110110 8
b1011 @
b1110110110 D
#115000
0!
0&
#120000
1!
b1011 #
b1110111001 $
b11111111111111111111111111111100 %
1&
b1011 ,
b10110 -
b111110110 0
b1111011000 4
b11111011000 5
b1110111010 7
b1110111001 8
b1011 B
b1110111001 D
#125000
0!
0&
#130000
1!
b1100 #
b1110111010 $
1&
b1100 (
b1100 )
b10111 -
b10111 .
b111110111 0
b111100101 1
b1111011100 4
b11111011100 5
b1110111110 7
b1110111010 8
b1100 <
b1110111010 D
#135000
0!
0&
#140000
1!
b1100 #
b1110111110 $
1&
b1100 *
b1100 /
b1101000 2
b111101000 3
b1111101000 6
b1111000100 7
b1110111110 8
b1100 >
b1110111110 D
#145000
0!
0&
#150000
1!
b1100 #
b1111000100 $
1&
b1100 +
b11000 .
b111101000 1
b1111011111 4
b11111011111 5
b1111000111 7
b1111000100 8
b1100 @
b1111000100 D
#155000
0!
0&
#160000
1!
b1100 #
b1111000111 $
b11111111111111111111111111111101 %
1&
b1100 ,
b11000 -
b111111000 0
b1111100000 4
b11111100000 5
b1111001000 7
b1111000111 8
b1100 B
b1111000111 D
#165000
0!
0&
#170000
1!
b1101 #
b1111001000 $
1&
b1101 (
b1101 )
b11001 -
b11001 .
b111111001 0
b111101011 1
b1111100100 4
b11111100100 5
b1111001100 7
b1111001000 8
b1101 <
b1111001000 D
#175000
0!
0&
#180000
1!
b1101 #
b1111001100 $
1&
b1101 *
b1101 /
b1101110 2
b111101110 3
b1111101110 6
b1111010010 7
b1111001100 8
b1101 >
b1111001100 D
#185000
0!
0&
#190000
1!
b1101 #
b1111010010 $
1&
b1101 +
b11010 .
b111101110 1
b1111100111 4
b11111100111 5
b1111010101 7
b1111010010 8
b1101 @
b1111010010 D
#195000
0!
0&
#200000
1!
b1101 #
b1111010101 $
b11111111111111111111111111111110 %
1&
b1101 ,
b11010 -
b111111010 0
b1111101000 4
b11111101000 5
b1111010110 7
b1111010101 8
b1101 B
b1111010101 D
#205000
0!
0&
#210000
1!
b1110 #
b1111010110 $
1&
b1110 (
b1110 )
b11011 -
b11011 .
b111111011 0
b111110001 1
b1111101100 4
b11111101100 5
b1111011010 7
b1111010110 8
b1110 <
b1111010110 D
#215000
0!
0&
#220000
1!
b1110 #
b1111011010 $
1&
b1110 *
b1110 /
b1110100 2
b111110100 3
b1111110100 6
b1111100000 7
b1111011010 8
b1110 >
b1111011010 D
#225000
0!
0&
#230000
1!
b1110 #
b1111100000 $
1&
b1110 +
b11100 .
b111110100 1
b1111101111 4
b11111101111 5
b1111100011 7
b1111100000 8
b1110 @
b1111100000 D
#235000
0!
0&
#240000
1!
b1110 #
b1111100011 $
b11111111111111111111111111111111 %
1&
b1110 ,
b11100 -
b111111100 0
b1111110000 4
b11111110000 5
b1111100100 7
b1111100011 8
b1110 B
b1111100011 D
#245000
0!
0&
#250000
1!
b1111 #
b1111100100 $
1&
b1111 (
b1111 )
b11101 -
b11101 .
b111111101 0
b111110111 1
b1111110100 4
b11111110100 5
b1111101000 7
b1111100100 8
b1111 <
b1111100100 D
#255000
0!
0&
#260000
1!
b1111 #
b1111101000 $
1&
b1111 *
b1111 /
b1111010 2
b111111010 3
b1111111010 6
b1111101110 7
b1111101000 8
b1111 >
b1111101000 D
#265000
0!
0&
#270000
1!
b1111 #
b1111101110 $
1&
b1111 +
b11110 .
b111111010 1
b1111110111 4
b11111110111 5
b1111110001 7
b1111101110 8
b1111 @
b1111101110 D
#275000
0!
0&
#280000
1!
b1111 #
b1111110001 $
b0 %
1&
b1111 ,
b11110 -
b111111110 0
b1111111000 4
b11111111000 5
b1111110010 7
b1111110001 8
b1111 B
b1111110001 D
#285000
0!
0&
#290000
1!
b0 #
b1111110010 $
1&
b0 (
b0 )
b11111 -
b11111 .
b111111111 0
b111111101 1
b1111111100 4
b11111111100 5
b1111110110 7
b1111110010 8
b0 <
b1111110010 D
#295000
0!
0&
#300000
1!
b0 #
b1111110110 $
1&
b0 *
b0 /
b0 2
b0 3
b0 6
b11111111100 7
b1111110110 8
b0 >
b1111110110 D
#305000
0!
0&
#310000
1!
b0 #
b1111111100 $
1&
b0 +
b0 .
b0 1
b1111111111 4
b11111111111 5
b11111111111 7
b11111111100 8
b0 @
b11111111100 D
#315000
0!
0&
#320000
1!
b0 #
b1111111111 $
b1 %
1&
b0 ,
b0 -
b0 0
b0 4
b0 5
b0 7
b11111111111 8
b0 B
b11111111111 D
#325000
0!
0&
#330000
1!
b1 #
b0 $
1&
b1 (
b1 )
b1 -
b1 .
b1 0
b11 1
b100 4
b100 5
b100 7
b0 8
b1 <
b0 D
#335000
0!
0&
#340000
1!
b1 #
b100 $
1&
b1 *
b1 /
b110 2
b110 3
b110 6
b1010 7
b100 8
b1 >
b100 D
#345000
0!
0&
#350000
1!
b1 #
b1010 $
1&
b1 +
b10 .
b110 1
b111 4
b111 5
b1101 7
b1010 8
b1 @
b1010 D
#355000
0!
0&
#360000
1!
b1 #
b1101 $
b10 %
1&
b1 ,
b10 -
b10 0
b1000 4
b1000 5
b1110 7
b1101 8
b1 B
b1101 D
#365000
0!
0&
#370000
1!
b10 #
b1110 $
1&
b10 (
b10 )
b11 -
b11 .
b11 0
b1001 1
b1100 4
b1100 5
b10010 7
b1110 8
b10 <
b1110 D
#375000
0!
0&
#380000
1!
b10 #
b10010 $
1&
b10 *
b10 /
b1100 2
b1100 3
b1100 6
b11000 7
b10010 8
b10 >
b10010 D
#385000
0!
0&
#390000
1!
b10 #
b11000 $
1&
b10 +
b100 .
b1100 1
b1111 4
b1111 5
b11011 7
b11000 8
b10 @
b11000 D
#395000
0!
0&
#400000
1!
b10 #
b11011 $
b11 %
1&
b10 ,
b100 -
b100 0
b10000 4
b10000 5
b11100 7
b11011 8
b10 B
b11011 D
#405000
0!
0&
#410000
1!
b11 #
b11100 $
1&
b11 (
b11 )
b101 -
b101 .
b101 0
b1111 1
b10100 4
b10100 5
b100000 7
b11100 8
b11 <
b11100 D
#415000
0!
0&
#420000
1!
b11 #
b100000 $
1&
b11 *
b11 /
b10010 2
b10010 3
b10010 6
b100110 7
b100000 8
b11 >
b100000 D
#425000
0!
0&
#430000
1!
b11 #
b100110 $
1&
b11 +
b110 .
b10010 1
b10111 4
b10111 5
b101001 7
b100110 8
b11 @
b100110 D
#435000
0!
0&
#440000
1!
b11 #
b101001 $
b100 %
1&
b11 ,
b110 -
b110 0
b11000 4
b11000 5
b101010 7
b101001 8
b11 B
b101001 D
#445000
0!
0&
#450000
1!
b100 #
b101010 $
1&
b100 (
b100 )
b111 -
b111 .
b111 0
b10101 1
b11100 4
b11100 5
b101110 7
b101010 8
b100 <
b101010 D
#455000
0!
0&
#460000
1!
b100 #
b101110 $
1&
b100 *
b100 /
b11000 2
b11000 3
b11000 6
b110100 7
b101110 8
b100 >
b101110 D
#465000
0!
0&
#470000
1!
b100 #
b110100 $
1&
b100 +
b1000 .
b11000 1
b11111 4
b11111 5
b110111 7
b110100 8
b100 @
b110100 D
#475000
0!
0&
#480000
1!
b100 #
b110111 $
b101 %
1&
b100 ,
b1000 -
b1000 0
b100000 4
b100000 5
b111000 7
b110111 8
b100 B
b110111 D
#485000
0!
0&
#490000
1!
b101 #
b111000 $
1&
b101 (
b101 )
b1001 -
b1001 .
b1001 0
b11011 1
b100100 4
b100100 5
b111100 7
b111000 8
b101 <
b111000 D
#495000
0!
0&
#500000
1!
b101 #
b111100 $
1&
b101 *
b101 /
b11110 2
b11110 3
b11110 6
b1000010 7
b111100 8
b101 >
b111100 D
#505000
0!
0&
#510000
1!
b101 #
b1000010 $
1&
b101 +
b1010 .
b11110 1
b100111 4
b100111 5
b1000101 7
b1000010 8
b101 @
b1000010 D
#515000
0!
0&
#520000
1!
b101 #
b1000101 $
b110 %
1&
b101 ,
b1010 -
b1010 0
b101000 4
b101000 5
b1000110 7
b1000101 8
b101 B
b1000101 D
#525000
0!
0&
#530000
1!
b110 #
b1000110 $
1&
b110 (
b110 )
b1011 -
b1011 .
b1011 0
b100001 1
b101100 4
b101100 5
b1001010 7
b1000110 8
b110 <
b1000110 D
#535000
0!
0&
#540000
1!
b110 #
b1001010 $
1&
b110 *
b110 /
b100100 2
b100100 3
b100100 6
b1010000 7
b1001010 8
b110 >
b1001010 D
#545000
0!
0&
#550000
1!
b110 #
b1010000 $
1&
b110 +
b1100 .
b100100 1
b101111 4
b101111 5
b1010011 7
b1010000 8
b110 @
b1010000 D
#555000
0!
0&
#560000
1!
b110 #
b1010011 $
b111 %
1&
b110 ,
b1100 -
b1100 0
b110000 4
b110000 5
b1010100 7
b1010011 8
b110 B
b1010011 D
#565000
0!
0&
#570000
1!
b111 #
b1010100 $
1&
b111 (
b111 )
b1101 -
b1101 .
b1101 0
b100111 1
b110100 4
b110100 5
b1011000 7
b1010100 8
b111 <
b1010100 D
#575000
0!
0&
#580000
1!
b111 #
b1011000 $
1&
b111 *
b111 /
b101010 2
b101010 3
b101010 6
b1011110 7
b1011000 8
b111 >
b1011000 D
#585000
0!
0&
#590000
1!
b111 #
b1011110 $
1&
b111 +
b1110 .
b101010 1
b110111 4
b110111 5
b1100001 7
b1011110 8
b111 @
b1011110 D
#595000
0!
0&
#600000
1!
b111 #
b1100001 $
b111 %
1&
b111 ,
b1110 -
b1110 0
b111000 4
b111000 5
b1100010 7
b1100001 8
b111 B
b1100001 D
#605000
0!
0&
#610000
1!
b111 #
b1100010 $
1&
b1100010 8
b1100010 D
#615000
0!
0&
#620000
1!
b111 #
1&
#625000
0!
0&
#630000
1!
b111 #
1&
#635000
0!
0&
#640000
1!
b111 #
b110 %
1&
#645000
0!
0&
#650000
1!
b110 #
1&
b110 (
b110 )
b1101 -
b1101 .
b1101 0
b100111 1
b110100 4
b110100 5
b1011110 7
b110 <
#655000
0!
0&
#660000
1!
b110 #
b1011110 $
1&
b110 *
b110 /
b100100 2
b100100 3
b100100 6
b1011000 7
b1011110 8
b110 >
b1011110 D
#665000
0!
0&
#670000
1!
b110 #
b1011000 $
1&
b110 +
b1100 .
b100100 1
b110001 4
b110001 5
b1010101 7
b1011000 8
b110 @
b1011000 D
#675000
0!
0&
#680000
1!
b110 #
b1010101 $
b101 %
1&
b110 ,
b1100 -
b1100 0
b110000 4
b110000 5
b1010100 7
b1010101 8
b110 B
b1010101 D
#685000
0!
0&
#690000
1!
b101 #
b1010100 $
1&
b101 (
b101 )
b1011 -
b1011 .
b1011 0
b100001 1
b101100 4
b101100 5
b1010000 7
b1010100 8
b101 <
b1010100 D
#695000
0!
0&
#700000
1!
b101 #
b1010000 $
1&
b101 *
b101 /
b11110 2
b11110 3
b11110 6
b1001010 7
b1010000 8
b101 >
b1010000 D
#705000
0!
0&
#710000
1!
b101 #
b1001010 $
1&
b101 +
b1010 .
b11110 1
b101001 4
b101001 5
b1000111 7
b1001010 8
b101 @
b1001010 D
#715000
0!
0&
#720000
1!
b101 #
b1000111 $
b100 %
1&
b101 ,
b1010 -
b1010 0
b101000 4
b101000 5
b1000110 7
b1000111 8
b101 B
b1000111 D
#725000
0!
0&
#730000
1!
b100 #
b1000110 $
1&
b100 (
b100 )
b1001 -
b1001 .
b1001 0
b11011 1
b100100 4
b100100 5
b1000010 7
b1000110 8
b100 <
b1000110 D
#735000
0!
0&
#740000
1!
b100 #
b1000010 $
1&
b100 *
b100 /
b11000 2
b11000 3
b11000 6
b111100 7
b1000010 8
b100 >
b1000010 D
#745000
0!
0&
#750000
1!
b100 #
b111100 $
1&
b100 +
b1000 .
b11000 1
b100001 4
b100001 5
b111001 7
b111100 8
b100 @
b111100 D
#755000
0!
0&
#760000
1!
b100 #
b111001 $
b11 %
1&
b100 ,
b1000 -
b1000 0
b100000 4
b100000 5
b111000 7
b111001 8
b100 B
b111001 D
#765000
0!
0&
#770000
1!
b11 #
b111000 $
1&
b11 (
b11 )
b111 -
b111 .
b111 0
b10101 1
b11100 4
b11100 5
b110100 7
b111000 8
b11 <
b111000 D
#775000
0!
0&
#780000
1!
b11 #
b110100 $
1&
b11 *
b11 /
b10010 2
b10010 3
b10010 6
b101110 7
b110100 8
b11 >
b110100 D
#785000
0!
0&
#790000
1!
b11 #
b101110 $
1&
b11 +
b110 .
b10010 1
b11001 4
b11001 5
b101011 7
b101110 8
b11 @
b101110 D
#795000
0!
0&
#800000
1!
b11 #
b101011 $
b10 %
1&
b11 ,
b110 -
b110 0
b11000 4
b11000 5
b101010 7
b101011 8
b11 B
b101011 D
#805000
0!
0&
#810000
1!
b10 #
b101010 $
1&
b10 (
b10 )
b101 -
b101 .
b101 0
b1111 1
b10100 4
b10100 5
b100110 7
b101010 8
b10 <
b101010 D
#815000
0!
0&
#820000
1!
b10 #
b100110 $
1&
b10 *
b10 /
b1100 2
b1100 3
b1100 6
b100000 7
b100110 8
b10 >
b100110 D
#825000
0!
0&
#830000
1!
b10 #
b100000 $
1&
b10 +
b100 .
b1100 1
b10001 4
b10001 5
b11101 7
b100000 8
b10 @
b100000 D
#835000
0!
0&
#840000
1!
b10 #
b11101 $
b1 %
1&
b10 ,
b100 -
b100 0
b10000 4
b10000 5
b11100 7
b11101 8
b10 B
b11101 D
#845000
0!
0&
#850000
1!
b1 #
b11100 $
1&
b1 (
b1 )
b11 -
b11 .
b11 0
b1001 1
b1100 4
b1100 5
b11000 7
b11100 8
b1 <
b11100 D
#855000
0!
0&
#860000
1!
b1 #
b11000 $
1&
b1 *
b1 /
b110 2
b110 3
b110 6
b10010 7
b11000 8
b1 >
b11000 D
#865000
0!
0&
#870000
1!
b1 #
b10010 $
1&
b1 +
b10 .
b110 1
b1001 4
b1001 5
b1111 7
b10010 8
b1 @
b10010 D
#875000
0!
0&
#880000
1!
b1 #
b1111 $
b0 %
1&
b1 ,
b10 -
b10 0
b1000 4
b1000 5
b1110 7
b1111 8
b1 B
b1111 D
#885000
0!
0&
#890000
1!
b0 #
b1110 $
1&
b0 (
b0 )
b1 -
b1 .
b1 0
b11 1
b100 4
b100 5
b1010 7
b1110 8
b0 <
b1110 D
#895000
0!
0&
#900000
1!
b0 #
b1010 $
1&
b0 *
b0 /
b0 2
b0 3
b0 6
b100 7
b1010 8
b0 >
b1010 D
#905000
0!
0&
#910000
1!
b0 #
b100 $
1&
b0 +
b0 .
b0 1
b1 4
b1 5
b1 7
b100 8
b0 @
b100 D
#915000
0!
0&
#920000
1!
b0 #
b1 $
b11111111111111111111111111111111 %
1&
b0 ,
b0 -
b0 0
b0 4
b0 5
b0 7
b1 8
b0 B
b1 D
#925000
0!
0&
#930000
1!
b1111 #
b0 $
1&
b1111 (
b1111 )
b11111 -
b11111 .
b111111111 0
b111111101 1
b1111111100 4
b11111111100 5
b11111111100 7
b0 8
b1111 <
b0 D
#935000
0!
0&
#940000
1!
b1111 #
b1111111100 $
1&
b1111 *
b1111 /
b1111010 2
b111111010 3
b1111111010 6
b1111110110 7
b11111111100 8
b1111 >
b11111111100 D
#945000
0!
0&
#950000
1!
b1111 #
b1111110110 $
1&
b1111 +
b11110 .
b111111010 1
b1111111001 4
b11111111001 5
b1111110011 7
b1111110110 8
b1111 @
b1111110110 D
#955000
0!
0&
#960000
1!
b1111 #
b1111110011 $
b11111111111111111111111111111110 %
1&
b1111 ,
b11110 -
b111111110 0
b1111111000 4
b11111111000 5
b1111110010 7
b1111110011 8
b1111 B
b1111110011 D
#965000
0!
0&
#970000
1!
b1110 #
b1111110010 $
1&
b1110 (
b1110 )
b11101 -
b11101 .
b111111101 0
b111110111 1
b1111110100 4
b11111110100 5
b1111101110 7
b1111110010 8
b1110 <
b1111110010 D
#975000
0!
0&
#980000
1!
b1110 #
b1111101110 $
1&
b1110 *
b1110 /
b1110100 2
b111110100 3
b1111110100 6
b1111101000 7
b1111101110 8
b1110 >
b1111101110 D
#985000
0!
0&
#990000
1!
b1110 #
b1111101000 $
1&
b1110 +
b11100 .
b111110100 1
b1111110001 4
b11111110001 5
b1111100101 7
b1111101000 8
b1110 @
b1111101000 D
#995000
0!
0&
#1000000
1!
b1110 #
b1111100101 $
b11111111111111111111111111111101 %
1&
b1110 ,
b11100 -
b111111100 0
b1111110000 4
b11111110000 5
b1111100100 7
b1111100101 8
b1110 B
b1111100101 D
